{
  "$schema" : "http://wso2.org/json-schema/wso2-data-mapper-v5.0.0/schema#",
  "id" : "http://wso2jsonschema.org",
  "title" : "root",
  "type" : "object",
  "properties" : {
    "daily_menus" : {
      "id" : "http://wso2jsonschema.org/daily_menus",
      "type" : "array",
      "items" : [ {
        "id" : "http://wso2jsonschema.org/daily_menus/0",
        "type" : "object",
        "properties" : {
          "daily_menu" : {
            "id" : "http://wso2jsonschema.org/daily_menus/0/daily_menu",
            "type" : "object",
            "properties" : {
              "daily_menu_id" : {
                "id" : "http://wso2jsonschema.org/daily_menus/0/daily_menu/daily_menu_id",
                "type" : "string"
              },
              "start_date" : {
                "id" : "http://wso2jsonschema.org/daily_menus/0/daily_menu/start_date",
                "type" : "string"
              },
              "name" : {
                "id" : "http://wso2jsonschema.org/daily_menus/0/daily_menu/name",
                "type" : "null"
              },
              "dishes" : {
                "id" : "http://wso2jsonschema.org/daily_menus/0/daily_menu/dishes",
                "type" : "array",
                "items" : [ {
                  "id" : "http://wso2jsonschema.org/daily_menus/0/daily_menu/dishes/0",
                  "type" : "object",
                  "properties" : {
                    "dish" : {
                      "id" : "http://wso2jsonschema.org/daily_menus/0/daily_menu/dishes/0/dish",
                      "type" : "object",
                      "properties" : {
                        "dish_id" : {
                          "id" : "http://wso2jsonschema.org/daily_menus/0/daily_menu/dishes/0/dish/dish_id",
                          "type" : "string"
                        },
                        "name" : {
                          "id" : "http://wso2jsonschema.org/daily_menus/0/daily_menu/dishes/0/dish/name",
                          "type" : "string"
                        },
                        "price" : {
                          "id" : "http://wso2jsonschema.org/daily_menus/0/daily_menu/dishes/0/dish/price",
                          "type" : "null"
                        }
                      }
                    }
                  }
                } ]
              }
            }
          }
        }
      } ]
    },
    "status" : {
      "id" : "http://wso2jsonschema.org/status",
      "type" : "string"
    }
  }
}